<define-tag pagetitle>DLA-1162-1 apr</define-tag>
<define-tag report_date>2017-11-6</define-tag>
<define-tag secrefs>CVE-2017-12613 Bug##879708</define-tag>
<define-tag packages>apr</define-tag>
<define-tag isvulnerable>yes</define-tag>
<define-tag fixed>yes</define-tag>
<define-tag fixed-section>no</define-tag>

#use wml::debian::security

