<define-tag pagetitle>DLA-2189-1 rzip</define-tag>
<define-tag report_date>2020-4-26</define-tag>
<define-tag secrefs>CVE-2017-8364</define-tag>
<define-tag packages>rzip</define-tag>
<define-tag isvulnerable>yes</define-tag>
<define-tag fixed>yes</define-tag>
<define-tag fixed-section>no</define-tag>

#use wml::debian::security

