<define-tag pagetitle>DLA-1617-1 libvncserver</define-tag>
<define-tag report_date>2018-12-27</define-tag>
<define-tag secrefs>CVE-2018-6307 CVE-2018-15127 CVE-2018-20019 CVE-2018-20020 CVE-2018-20021 CVE-2018-20022 CVE-2018-20023 CVE-2018-20024 Bug#916941</define-tag>
<define-tag packages>libvncserver</define-tag>
<define-tag isvulnerable>yes</define-tag>
<define-tag fixed>yes</define-tag>
<define-tag fixed-section>no</define-tag>

#use wml::debian::security

