<define-tag pagetitle>DLA-1541-1 jekyll</define-tag>
<define-tag report_date>2018-10-10</define-tag>
<define-tag secrefs>CVE-2018-17567 Bug#909933</define-tag>
<define-tag packages>jekyll</define-tag>
<define-tag isvulnerable>yes</define-tag>
<define-tag fixed>yes</define-tag>
<define-tag fixed-section>no</define-tag>

#use wml::debian::security

