<define-tag pagetitle>DLA-2055-1 igraph</define-tag>
<define-tag report_date>2019-12-31</define-tag>
<define-tag secrefs>CVE-2018-20349</define-tag>
<define-tag packages>igraph</define-tag>
<define-tag isvulnerable>yes</define-tag>
<define-tag fixed>yes</define-tag>
<define-tag fixed-section>no</define-tag>

#use wml::debian::security

