<define-tag pagetitle>DLA-449-1 botan1.10</define-tag>
<define-tag report_date>2016-4-30</define-tag>
<define-tag secrefs>CVE-2014-9742 CVE-2015-5726 CVE-2015-5727 CVE-2015-7827 CVE-2016-2194 CVE-2016-2195 CVE-2016-2849</define-tag>
<define-tag packages>botan1.10</define-tag>
<define-tag isvulnerable>yes</define-tag>
<define-tag fixed>yes</define-tag>
<define-tag fixed-section>no</define-tag>

#use wml::debian::security

