<define-tag pagetitle>DLA-552-1 binutils</define-tag>
<define-tag report_date>2016-7-18</define-tag>
<define-tag secrefs>CVE-2016-2226 CVE-2016-4487 CVE-2016-4488 CVE-2016-4489 CVE-2016-4490 CVE-2016-4492 CVE-2016-4493 CVE-2016-6131</define-tag>
<define-tag packages>binutils</define-tag>
<define-tag isvulnerable>yes</define-tag>
<define-tag fixed>yes</define-tag>
<define-tag fixed-section>no</define-tag>

#use wml::debian::security

